digraph workflow {
  node[shape="rectangle", style="filled", fillcolor="#d0d0d0"];

  add[label="Add dotfiles"];
  addtospark[label="Add new dotfile to spark card"];
  break[label="Breakage", fillcolor="#ff5050"];
  bus[label="Backup/Synchronise"];
  clone[label="Clone SUS depot"];
  deploy[label="Deploy SUS", fillcolor="#70ff70"];
  init[label="Initialise SUS depot"];
  new[label="New system", fillcolor="#f0f050"];
  start[label="Start", fillcolor="#f0f050"];
  update[label="Update dotfiles"];

  add -> addtospark;
  addtospark -> bus;
  break -> clone;
  bus -> deploy;
  clone -> deploy;
  deploy -> update;
  deploy -> add;
  init -> add;
  new -> clone;
  start -> init;
  update -> bus;
}
